verilog/25125008_verilog/dump.vcd
$date
	Sat Mar 21 17:10:58 2026
$end
$version
	Icarus Verilog
$end
$timescale
	1ps
$end
$scope module tb_25125008_riscv $end
$var wire 1 ! mem_rbusy $end
$var wire 1 " mem_wbusy $end
$var wire 4 # mem_wmask [3:0] $end
$var wire 32 $ mem_wdata [31:0] $end
$var wire 1 % mem_rstrb $end
$var wire 32 & mem_addr [31:0] $end
$var parameter 32 ' MEM_WORDS $end
$var reg 1 ( clk $end
$var reg 32 ) mem_rdata [31:0] $end
$var reg 32 * prev_fail [31:0] $end
$var reg 32 + prev_pass [31:0] $end
$var reg 1 , reset $end
$scope module dut $end
$var wire 1 ( clk $end
$var wire 1 - fetch_latch_en $end
$var wire 1 . mem_done $end
$var wire 1 ! mem_rbusy $end
$var wire 32 / mem_rdata [31:0] $end
$var wire 1 " mem_wbusy $end
$var wire 1 , reset $end
$var wire 1 0 writeback_en $end
$var wire 32 1 pc_target [31:0] $end
$var wire 32 2 pc_next [31:0] $end
$var wire 1 3 pc_mux_sel $end
$var wire 1 4 mem_wait_en $end
$var wire 1 5 is_mem_write $end
$var wire 1 6 is_mem_op $end
$var wire 1 7 execute_en $end
$var wire 1 8 core_dmem_write $end
$var wire 4 9 core_dmem_wmask [3:0] $end
$var wire 32 : core_dmem_wdata [31:0] $end
$var wire 32 ; core_dmem_addr [31:0] $end
$var reg 32 < PC [31:0] $end
$var reg 32 = mem_addr [31:0] $end
$var reg 1 % mem_rstrb $end
$var reg 32 > mem_wdata [31:0] $end
$var reg 4 ? mem_wmask [3:0] $end
$var reg 3 @ state [2:0] $end
$var reg 3 A state_next [2:0] $end
$scope module core $end
$var wire 1 ( clk_i $end
$var wire 32 B dmem_addr_o [31:0] $end
$var wire 32 C dmem_rdata_i [31:0] $end
$var wire 32 D dmem_wdata_o [31:0] $end
$var wire 4 E dmem_wmask_o [3:0] $end
$var wire 1 8 dmem_write_enable_o $end
$var wire 1 7 execute_en_i $end
$var wire 1 - fetch_latch_en_i $end
$var wire 32 F instruction_data_i [31:0] $end
$var wire 1 5 is_mem_write_o $end
$var wire 1 . mem_done_i $end
$var wire 1 4 mem_wait_en_i $end
$var wire 32 G pc_i [31:0] $end
$var wire 32 H pc_next_i [31:0] $end
$var wire 32 I reg_write_data [31:0] $end
$var wire 1 J reset_i $end
$var wire 1 0 writeback_en_i $end
$var wire 4 K store_strobe [3:0] $end
$var wire 32 L store_data [31:0] $end
$var wire 5 M rs2_addr [4:0] $end
$var wire 5 N rs1_addr [4:0] $end
$var wire 1 O reg_write_enable $end
$var wire 3 P reg_wd_sel [2:0] $end
$var wire 32 Q reg_src2 [31:0] $end
$var wire 32 R reg_src1 [31:0] $end
$var wire 5 S rd_addr [4:0] $end
$var wire 32 T raw_load_data [31:0] $end
$var wire 32 U pc_target_o [31:0] $end
$var wire 1 3 pc_mux_sel_o $end
$var wire 7 V opcode [6:0] $end
$var wire 4 W load_store_type [3:0] $end
$var wire 1 6 is_mem_op_o $end
$var wire 32 X immediate [31:0] $end
$var wire 3 Y imm_select [2:0] $end
$var wire 1 Z funct7b5 $end
$var wire 3 [ funct3 [2:0] $end
$var wire 1 \ exec_port_b_sel $end
$var wire 1 ] exec_port_a_sel $end
$var wire 1 ^ dmem_write $end
$var wire 1 _ comp_result $end
$var wire 1 ` comp_port_b_sel $end
$var wire 32 a comp_port_b [31:0] $end
$var wire 3 b comp_op_sel [2:0] $end
$var wire 32 c alu_result [31:0] $end
$var wire 32 d alu_port_b [31:0] $end
$var wire 32 e alu_port_a [31:0] $end
$var wire 4 f alu_op_sel [3:0] $end
$var reg 32 g instr_reg [31:0] $end
$var reg 32 h load_data_reg [31:0] $end
$var reg 32 i reg_write_data_r [31:0] $end
$scope module alu $end
$var wire 32 j alu_port_a_i [31:0] $end
$var wire 32 k alu_port_b_i [31:0] $end
$var wire 32 l port_a_s [31:0] $end
$var wire 5 m shamt [4:0] $end
$var wire 4 n alu_op_sel_i [3:0] $end
$var parameter 32 o REG_ADDR_WIDTH $end
$var parameter 32 p XLEN $end
$var reg 32 q alu_o [31:0] $end
$upscope $end
$scope module ccu $end
$var wire 3 r funct3_i [2:0] $end
$var wire 1 Z funct7_bit5_i $end
$var wire 7 s op_code_i [6:0] $end
$var wire 1 _ branch_enable_i $end
$var parameter 7 t OP_B_TYPE $end
$var parameter 7 u OP_I_ALU $end
$var parameter 7 v OP_I_FENCE $end
$var parameter 7 w OP_I_JALR $end
$var parameter 7 x OP_I_LOAD $end
$var parameter 7 y OP_J_TYPE $end
$var parameter 7 z OP_R_TYPE $end
$var parameter 7 { OP_S_TYPE $end
$var parameter 7 | OP_U_AUIPC $end
$var parameter 7 } OP_U_LUI $end
$var parameter 32 ~ XLEN $end
$var reg 4 !" alu_op_sel_o [3:0] $end
$var reg 3 "" comp_op_sel_o [2:0] $end
$var reg 1 ` comp_port_b_sel_o $end
$var reg 1 ^ data_memory_write_o $end
$var reg 1 ] execute_port_a_sel_o $end
$var reg 1 \ execute_port_b_sel_o $end
$var reg 3 #" imm_select_o [2:0] $end
$var reg 4 $" load_store_type_o [3:0] $end
$var reg 1 3 pc_mux_sel_o $end
$var reg 3 %" reg_write_data_sel_o [2:0] $end
$var reg 1 O reg_write_enable_o $end
$upscope $end
$scope module cmp $end
$var wire 32 &" a_s [31:0] $end
$var wire 32 '" b_s [31:0] $end
$var wire 3 (" comp_op_sel_i [2:0] $end
$var wire 32 )" comp_port_b_i [31:0] $end
$var wire 32 *" comp_port_a_i [31:0] $end
$var parameter 32 +" XLEN $end
$var reg 1 _ comp_o $end
$upscope $end
$scope module ise $end
$var wire 25 ," imm_i [31:7] $end
$var wire 3 -" imm_sel_i [2:0] $end
$var wire 12 ." s_raw [11:0] $end
$var wire 21 /" j_raw [20:0] $end
$var wire 12 0" i_raw [11:0] $end
$var wire 13 1" b_raw [12:0] $end
$var parameter 32 2" XLEN $end
$var reg 32 3" imm_o [31:0] $end
$upscope $end
$scope module lsu $end
$var wire 2 4" addr_offset_i [1:0] $end
$var wire 8 5" byte_s [7:0] $end
$var wire 16 6" half_s [15:0] $end
$var wire 4 7" load_store_type_i [3:0] $end
$var wire 32 8" read_data_i [31:0] $end
$var wire 32 9" write_data_i [31:0] $end
$var wire 16 :" half_sel [15:0] $end
$var wire 8 ;" byte_sel [7:0] $end
$var parameter 32 <" XLEN $end
$var reg 32 =" read_data_o [31:0] $end
$var reg 32 >" write_data_o [31:0] $end
$var reg 4 ?" write_data_strobe_o [3:0] $end
$upscope $end
$scope module regfile $end
$var wire 1 ( clk_i $end
$var wire 5 @" read_address_1_i [4:0] $end
$var wire 5 A" read_address_2_i [4:0] $end
$var wire 5 B" write_address_i [4:0] $end
$var wire 32 C" write_data_i [31:0] $end
$var wire 1 D" write_enable_i $end
$var wire 32 E" read_data_2_o [31:0] $end
$var wire 32 F" read_data_1_o [31:0] $end
$var parameter 32 G" REG_ADDR_WIDTH $end
$var parameter 32 H" XLEN $end
$var integer 32 I" init_i [31:0] $end
$upscope $end
$upscope $end
$upscope $end
$scope begin monitor_block $end
$var reg 32 J" cf [31:0] $end
$var reg 32 K" cp [31:0] $end
$var reg 32 L" tnum [31:0] $end
$upscope $end
$scope task load_program $end
$var integer 32 M" i [31:0] $end
$upscope $end
$scope task print_test_name $end
$var integer 32 N" tnum [31:0] $end
$upscope $end
$upscope $end
$enddefinitions $end
$comment Show the parameter values. $end
$dumpall
b100000 H"
b101 G"
b100000 <"
b100000 2"
b100000 +"
b100000 ~
b110111 }
b10111 |
b100011 {
b110011 z
b1101111 y
b11 x
b1100111 w
b1111 v
b10011 u
b1100011 t
b100000 p
b101 o
b10000000000 '
$end
#0
$dumpvars
bx N"
b10000000000 M"
bx L"
bx K"
bx J"
b100000 I"
b0 F"
b0 E"
0D"
b0 C"
b0 B"
b0 A"
b0 @"
b0 ?"
b0 >"
b111100000000010100010011 ="
b10011 ;"
b10100010011 :"
b0 9"
b111100000000010100010011 8"
b1000 7"
b10100010011 6"
b10011 5"
b0 4"
b0 3"
b0 1"
b0 0"
b0 /"
b0 ."
b0 -"
b0 ,"
b0 *"
b0 )"
b110 ("
b0 '"
b0 &"
b0 %"
b1000 $"
b0 #"
b110 ""
b0 !"
b10011 s
b0 r
b0 q
b0 n
b0 m
b0 l
b0 k
b0 j
b0 i
b0 h
b10011 g
b0 f
b0 e
b0 d
b0 c
b110 b
b0 a
1`
0_
0^
1]
0\
b0 [
0Z
b0 Y
b0 X
b1000 W
b10011 V
b0 U
b111100000000010100010011 T
b0 S
b0 R
b0 Q
b0 P
1O
b0 N
b0 M
b0 L
b0 K
1J
b0 I
b100 H
b0 G
b111100000000010100010011 F
b0 E
b0 D
b111100000000010100010011 C
b0 B
b1 A
b0 @
b0 ?
b0 >
b0 =
b0 <
b0 ;
b0 :
b0 9
08
07
06
05
04
03
b100 2
b0 1
00
b111100000000010100010011 /
0.
0-
0,
b0 +
b0 *
b111100000000010100010011 )
0(
b0 &
1%
b0 $
b0 #
0"
0!
$end
#5000
b0 J"
b0 K"
1(
#10000
0(
#15000
0%
b10 A
1-
b1 @
0J
1,
1(
#20000
0(
#25000
b11110000 6"
b11110000 :"
b0 5"
b0 ;"
b1111 1
b1111 U
b11 4"
b1111 I
b1111 C"
b1111 i
b1111 ;
b1111 B
b1111 c
b1111 q
b1111 m
b1010 1"
b100000001110 /"
b1111 '"
b1111 a
b1111 )"
b1111 d
b1111 k
b1010 ."
b1111 X
b1111 3"
b1111 0"
b1010 S
b1010 B"
b1111 M
b1111 A"
b11110000000001010 ,"
b100 A
0-
b111100000000010100010011 g
17
b10 @
1(
#30000
0(
#35000
b0 A
1D"
07
10
b100 @
1(
#40000
0(
#45000
b101000000000010110010011 T
b101000000000010110010011 ="
b10100000 6"
b10100000 :"
b101000000000010110010011 )
b101000000000010110010011 /
b101000000000010110010011 C
b101000000000010110010011 F
b101000000000010110010011 8"
1%
b100 &
b100 =
b1 A
0D"
b1000 2
b1000 H
b100 <
b100 G
00
b0 @
1(
#50000
0(
#55000
0%
b10 A
1-
b1 @
1(
#60000
0(
#65000
b10100000 5"
b10100000 ;"
b1010 1
b1010 U
b10 4"
b1010 I
b1010 C"
b1010 i
b1111 :
b1111 D
b1111 L
b1111 >"
b1010 ;
b1010 B
b1010 c
b1010 q
b1010 m
b100000001010 1"
b1010 /"
b1111 Q
b1111 9"
b1111 E"
b1010 '"
b1010 a
b1010 )"
b1010 d
b1010 k
b1011 ."
b1010 X
b1010 3"
b1010 0"
b1011 S
b1011 B"
b1010 M
b1010 A"
b10100000000001011 ,"
b100 A
0-
b101000000000010110010011 g
17
b10 @
1(
#70000
0(
#75000
b0 A
1D"
07
10
b100 @
1(
#80000
0(
#85000
b101101010000011000110011 T
b101101010000011000110011 ="
b10110101 5"
b10110101 ;"
b10110101 6"
b10110101 :"
b101101010000011000110011 )
b101101010000011000110011 /
b101101010000011000110011 C
b101101010000011000110011 F
b101101010000011000110011 8"
1%
b1000 &
b1000 =
b1 A
0D"
b1100 2
b1100 H
b1000 <
b1000 G
00
b0 @
1(
#90000
0(
#95000
0%
b10 A
1-
b1 @
1(
#100000
0(
#105000
b11000110011 6"
b11000110011 :"
b110 5"
b110 ;"
b1 4"
b11001 1
b11001 U
b11001 I
b11001 C"
b11001 i
b1010 :
b1010 D
b1010 L
b1010 >"
b1010 m
b1100 1"
b1010000100000001010 /"
b11001 ;
b11001 B
b11001 c
b11001 q
b1111 l
b1111 e
b1111 j
b1010 Q
b1010 9"
b1010 E"
b1010 '"
b1010 a
b1010 )"
b1010 d
b1010 k
b1100 ."
1\
b0 P
b0 %"
b0 f
b0 n
b0 !"
0`
b101 Y
b101 #"
b101 -"
1O
b1111 &"
b1111 R
b1111 *"
b1111 F"
b0 X
b0 3"
b1011 0"
b110011 V
b110011 s
b1100 S
b1100 B"
b1010 N
b1010 @"
b1011 M
b1011 A"
b10110101000001100 ,"
b100 A
0-
b101101010000011000110011 g
17
b10 @
1(
#110000
0(
#115000
b0 A
1D"
07
10
b100 @
1(
#120000
0(
#125000
b1100100000000011010010011 T
b1100100000000011010010011 ="
b11010010011 6"
b11010010011 :"
b1100100000000011010010011 )
b1100100000000011010010011 /
b1100100000000011010010011 C
b1100100000000011010010011 F
b1100100000000011010010011 8"
1%
b1100 &
b1100 =
b1 A
0D"
b10000 2
b10000 H
b1100 <
b1100 G
00
b0 @
1(
#130000
0(
#135000
0%
b10 A
1-
b1 @
1(
#140000
0(
#145000
b110 5"
b110 ;"
b11001 1
b11001 U
b1 4"
b11001 m
b0 :
b0 D
b0 L
b0 >"
b100000001100 1"
b100000011000 /"
b11001 '"
b11001 a
b11001 )"
b11001 X
b11001 3"
b11001 I
b11001 C"
b11001 i
b11001 ;
b11001 B
b11001 c
b11001 q
b11001 d
b11001 k
b0 l
b0 e
b0 j
b0 Q
b0 9"
b0 E"
b1101 ."
1`
b0 Y
b0 #"
b0 -"
b0 P
b0 %"
b0 f
b0 n
b0 !"
0\
1O
b0 &"
b0 R
b0 *"
b0 F"
b11001 0"
b10011 V
b10011 s
b1101 S
b1101 B"
b0 N
b0 @"
b11001 M
b11001 A"
b110010000000001101 ,"
b100 A
0-
b1100100000000011010010011 g
17
b10 @
1(
#150000
0(
#155000
b0 A
1D"
07
10
b100 @
1(
#160000
0(
#165000
b110101100000010001100011 T
b110101100000010001100011 ="
b100 5"
b100 ;"
b10001100011 6"
b10001100011 :"
b110101100000010001100011 )
b110101100000010001100011 /
b110101100000010001100011 C
b110101100000010001100011 F
b110101100000010001100011 8"
1%
b10000 &
b10000 =
b1 A
0D"
b10100 2
b10100 H
b10000 <
b10000 G
00
b0 @
1(
#170000
0(
#175000
0%
b10 A
1-
b1 @
1(
#180000
0(
#185000
b1100011 5"
b1100011 ;"
13
b0 4"
1_
b11000 1
b11000 U
b11001 :
b11001 D
b11001 L
b11001 >"
b1000 m
b1000 1"
b1100000100000001100 /"
b11000 ;
b11000 B
b11000 c
b11000 q
b10000 l
b10000 e
b10000 j
b11001 Q
b11001 9"
b11001 E"
b11001 '"
b11001 a
b11001 )"
b1000 d
b1000 k
b0 I
b0 C"
b0 i
b1000 ."
b0 b
b0 ""
b0 ("
0]
b101 P
b101 %"
b0 f
b0 n
b0 !"
0`
b10 Y
b10 #"
b10 -"
0O
b11001 &"
b11001 R
b11001 *"
b11001 F"
b1000 X
b1000 3"
b1101 0"
b1100011 V
b1100011 s
b1000 S
b1000 B"
b1100 N
b1100 @"
b1101 M
b1101 A"
b11010110000001000 ,"
b100 A
0-
b110101100000010001100011 g
17
b10 @
1(
#190000
0(
#195000
b0 A
07
10
b100 @
1(
#200000
0(
#205000
b100000 1
b100000 U
b111100000111000010011 T
b111100000111000010011 ="
b10011 5"
b10011 ;"
b111000010011 6"
b111000010011 :"
b100000 ;
b100000 B
b100000 c
b100000 q
b111100000111000010011 )
b111100000111000010011 /
b111100000111000010011 C
b111100000111000010011 F
b111100000111000010011 8"
b11000 l
b11000 e
b11000 j
1%
b11000 &
b11000 =
b1 A
b11100 2
b11100 H
b11000 <
b11000 G
00
b0 @
1(
#210000
0(
#215000
0%
b10 A
1-
b1 @
1(
#220000
0(
#225000
b1110 5"
b1110 ;"
b1 4"
b1 m
b1 1
b1 U
b1 d
b1 k
b0 :
b0 D
b0 L
b0 >"
b11100 1"
b11100000100000000000 /"
b1 I
b1 C"
b1 i
b1 '"
b1 a
b1 )"
0_
b1 ;
b1 B
b1 c
b1 q
b0 l
b0 e
b0 j
b1 X
b1 3"
b0 &"
b0 R
b0 *"
b0 F"
b0 Q
b0 9"
b0 E"
b11100 ."
b0 P
b0 %"
1`
1O
b110 b
b110 ""
b110 ("
b0 f
b0 n
b0 !"
1]
b0 Y
b0 #"
b0 -"
03
b1 0"
b10011 V
b10011 s
b11100 S
b11100 B"
b11100 N
b11100 @"
b1 M
b1 A"
b11110000011100 ,"
b100 A
0-
b111100000111000010011 g
17
b10 @
1(
#230000
0(
#235000
b0 A
1D"
07
10
b100 @
1(
#240000
b11110 6"
b11110 :"
b11110 5"
b11110 ;"
b10 1
b10 U
b10 4"
b10 I
b10 C"
b10 i
b10 ;
b10 B
b10 c
b10 q
b1 l
b1 e
b1 j
b1 &"
b1 R
b1 *"
b1 F"
0(
#245000
b1000000101101010000011000110011 T
b1000000101101010000011000110011 ="
b10110101 5"
b10110101 ;"
b100000010110101 6"
b100000010110101 :"
b1000000101101010000011000110011 )
b1000000101101010000011000110011 /
b1000000101101010000011000110011 C
b1000000101101010000011000110011 F
b1000000101101010000011000110011 8"
1%
b11100 &
b11100 =
b1 A
0D"
b100000 2
b100000 H
b11100 <
b11100 G
00
b0 @
b1 +
b1 N"
b1 L"
b1 K"
1(
#250000
0(
#255000
0%
b10 A
1-
b1 @
1(
#260000
0(
#265000
b11000110011 6"
b11000110011 :"
b110 5"
b110 ;"
b1111 l
b1111 e
b1111 j
b1010 :
b1010 D
b1010 L
b1010 >"
b101 1
b101 U
b1 4"
b101 I
b101 C"
b101 i
b1010 m
b10000001100 1"
b1010000110000001010 /"
b1111 &"
b1111 R
b1111 *"
b1111 F"
b1010 Q
b1010 9"
b1010 E"
b101 ;
b101 B
b101 c
b101 q
b1010 '"
b1010 a
b1010 )"
b1010 d
b1010 k
b10000001100 ."
1\
b0 P
b0 %"
b1 f
b1 n
b1 !"
0`
b101 Y
b101 #"
b101 -"
1O
b0 X
b0 3"
b10000001011 0"
b110011 V
b110011 s
b1100 S
b1100 B"
b1010 N
b1010 @"
b1011 M
b1011 A"
1Z
b100000010110101000001100 ,"
b100 A
0-
b1000000101101010000011000110011 g
17
b10 @
1(
#270000
0(
#275000
b0 A
1D"
07
10
b100 @
1(
#280000
0(
#285000
b10100000000011010010011 T
b10100000000011010010011 ="
b11010010011 6"
b11010010011 :"
b10100000000011010010011 )
b10100000000011010010011 /
b10100000000011010010011 C
b10100000000011010010011 F
b10100000000011010010011 8"
1%
b100000 &
b100000 =
b1 A
0D"
b100100 2
b100100 H
b100000 <
b100000 G
00
b0 @
1(
#290000
0(
#295000
0%
b10 A
1-
b1 @
1(
#300000
0(
#305000
b11010010011 6"
b11010010011 :"
b110 5"
b110 ;"
b0 :
b0 D
b0 L
b0 >"
b101 1
b101 U
b1 4"
b101 m
b100000001100 1"
b100000000100 /"
b0 l
b0 e
b0 j
b0 Q
b0 9"
b0 E"
b101 '"
b101 a
b101 )"
b101 X
b101 3"
b101 I
b101 C"
b101 i
b101 ;
b101 B
b101 c
b101 q
b101 d
b101 k
b1101 ."
b0 &"
b0 R
b0 *"
b0 F"
1`
b0 Y
b0 #"
b0 -"
b0 P
b0 %"
b0 f
b0 n
b0 !"
0\
1O
b101 0"
b10011 V
b10011 s
b1101 S
b1101 B"
b0 N
b0 @"
b101 M
b101 A"
0Z
b1010000000001101 ,"
b100 A
0-
b10100000000011010010011 g
17
b10 @
1(
#310000
0(
#315000
b0 A
1D"
07
10
b100 @
1(
#320000
0(
#325000
b110101100000010001100011 T
b110101100000010001100011 ="
b100 5"
b100 ;"
b10001100011 6"
b10001100011 :"
b110101100000010001100011 )
b110101100000010001100011 /
b110101100000010001100011 C
b110101100000010001100011 F
b110101100000010001100011 8"
1%
b100100 &
b100100 =
b1 A
0D"
b101000 2
b101000 H
b100100 <
b100100 G
00
b0 @
1(
#330000
0(
#335000
0%
b10 A
1-
b1 @
1(
#340000
0(
#345000
b1100011 5"
b1100011 ;"
13
b0 4"
1_
b101100 1
b101100 U
b101 :
b101 D
b101 L
b101 >"
b1000 m
b1000 1"
b1100000100000001100 /"
b101100 ;
b101100 B
b101100 c
b101100 q
b100100 l
b100100 e
b100100 j
b101 Q
b101 9"
b101 E"
b101 '"
b101 a
b101 )"
b1000 d
b1000 k
b0 I
b0 C"
b0 i
b1000 ."
b0 b
b0 ""
b0 ("
0]
b101 P
b101 %"
b0 f
b0 n
b0 !"
0`
b10 Y
b10 #"
b10 -"
0O
b101 &"
b101 R
b101 *"
b101 F"
b1000 X
b1000 3"
b1101 0"
b1100011 V
b1100011 s
b1000 S
b1000 B"
b1100 N
b1100 @"
b1101 M
b1101 A"
b11010110000001000 ,"
b100 A
0-
b110101100000010001100011 g
17
b10 @
1(
#350000
0(
#355000
b0 A
07
10
b100 @
1(
#360000
0(
#365000
b110100 1
b110100 U
b111100000111000010011 T
b111100000111000010011 ="
b10011 5"
b10011 ;"
b111000010011 6"
b111000010011 :"
b110100 ;
b110100 B
b110100 c
b110100 q
b111100000111000010011 )
b111100000111000010011 /
b111100000111000010011 C
b111100000111000010011 F
b111100000111000010011 8"
b101100 l
b101100 e
b101100 j
1%
b101100 &
b101100 =
b1 A
b110000 2
b110000 H
b101100 <
b101100 G
00
b0 @
1(
#370000
0(
#375000
0%
b10 A
1-
b1 @
1(
#380000
0(
#385000
b11110 6"
b11110 :"
b11110 5"
b11110 ;"
b1 m
b10 1
b10 U
b10 4"
b1 d
b1 k
b0 :
b0 D
b0 L
b0 >"
b11100 1"
b11100000100000000000 /"
b10 I
b10 C"
b10 i
b1 '"
b1 a
b1 )"
0_
b10 ;
b10 B
b10 c
b10 q
b1 l
b1 e
b1 j
b1 X
b1 3"
b1 &"
b1 R
b1 *"
b1 F"
b0 Q
b0 9"
b0 E"
b11100 ."
b0 P
b0 %"
1`
1O
b110 b
b110 ""
b110 ("
b0 f
b0 n
b0 !"
1]
b0 Y
b0 #"
b0 -"
03
b1 0"
b10011 V
b10011 s
b11100 S
b11100 B"
b11100 N
b11100 @"
b1 M
b1 A"
b11110000011100 ,"
b100 A
0-
b111100000111000010011 g
17
b10 @
1(
#390000
0(
#395000
b0 A
1D"
07
10
b100 @
1(
#400000
b0 5"
b0 ;"
b11 1
b11 U
b11 4"
b11 I
b11 C"
b11 i
b11 ;
b11 B
b11 c
b11 q
b10 l
b10 e
b10 j
b10 &"
b10 R
b10 *"
b10 F"
0(
#405000
b101000000000010100010011 T
b101000000000010100010011 ="
b10100000 6"
b10100000 :"
b101000000000010100010011 )
b101000000000010100010011 /
b101000000000010100010011 C
b101000000000010100010011 F
b101000000000010100010011 8"
1%
b110000 &
b110000 =
b1 A
0D"
b110100 2
b110100 H
b110000 <
b110000 G
00
b0 @
b10 +
b10 N"
b10 L"
b10 K"
1(
#410000
0(
#415000
0%
b10 A
1-
b1 @
1(
#420000
0(
#425000
b10100000 5"
b10100000 ;"
b1010 1
b1010 U
b10 4"
b1010 I
b1010 C"
b1010 i
b1111 :
b1111 D
b1111 L
b1111 >"
b1010 ;
b1010 B
b1010 c
b1010 q
b1010 m
b1010 1"
b1010 /"
b0 l
b0 e
b0 j
b1111 Q
b1111 9"
b1111 E"
b1010 '"
b1010 a
b1010 )"
b1010 d
b1010 k
b1010 ."
b0 &"
b0 R
b0 *"
b0 F"
b1010 X
b1010 3"
b1010 0"
b1010 S
b1010 B"
b0 N
b0 @"
b1010 M
b1010 A"
b10100000000001010 ,"
b100 A
0-
b101000000000010100010011 g
17
b10 @
1(
#430000
0(
#435000
b0 A
1D"
07
10
b100 @
1(
#440000
b1010 :
b1010 D
b1010 L
b1010 >"
b1010 Q
b1010 9"
b1010 E"
0(
#445000
b110000000000010110010011 T
b110000000000010110010011 ="
b11000000 5"
b11000000 ;"
b11000000 6"
b11000000 :"
b110000000000010110010011 )
b110000000000010110010011 /
b110000000000010110010011 C
b110000000000010110010011 F
b110000000000010110010011 8"
1%
b110100 &
b110100 =
b1 A
0D"
b111000 2
b111000 H
b110100 <
b110100 G
00
b0 @
1(
#450000
0(
#455000
0%
b10 A
1-
b1 @
1(
#460000
0(
#465000
b10110010011 6"
b10110010011 :"
b10010011 5"
b10010011 ;"
b1100 1
b1100 U
b0 4"
b1100 I
b1100 C"
b1100 i
b101 :
b101 D
b101 L
b101 >"
b1100 ;
b1100 B
b1100 c
b1100 q
b1100 m
b100000001010 1"
b1100 /"
b101 Q
b101 9"
b101 E"
b1100 '"
b1100 a
b1100 )"
b1100 d
b1100 k
b1011 ."
b1100 X
b1100 3"
b1100 0"
b1011 S
b1011 B"
b1100 M
b1100 A"
b11000000000001011 ,"
b100 A
0-
b110000000000010110010011 g
17
b10 @
1(
#470000
0(
#475000
b0 A
1D"
07
10
b100 @
1(
#480000
0(
#485000
b101101010100011000110011 T
b101101010100011000110011 ="
b110011 5"
b110011 ;"
b100011000110011 6"
b100011000110011 :"
b101101010100011000110011 )
b101101010100011000110011 /
b101101010100011000110011 C
b101101010100011000110011 F
b101101010100011000110011 8"
1%
b111000 &
b111000 =
b1 A
0D"
b111100 2
b111100 H
b111000 <
b111000 G
00
b0 @
1(
#490000
0(
#495000
0%
b10 A
1-
b1 @
1(
#500000
0(
#505000
b10110101 6"
b10110101 :"
b10110101 5"
b10110101 ;"
b110 1
b110 U
b10 4"
b110 I
b110 C"
b110 i
b1100 :
b1100 D
b1100 L
b1100 >"
b1100 m
b1100 1"
b1010100100000001010 /"
b110 ;
b110 B
b110 c
b110 q
b1010 l
b1010 e
b1010 j
b1100 Q
b1100 9"
b1100 E"
b1100 '"
b1100 a
b1100 )"
b1100 d
b1100 k
b1100 ."
1\
b0 P
b0 %"
b100 f
b100 n
b100 !"
0`
b101 Y
b101 #"
b101 -"
1O
b1010 &"
b1010 R
b1010 *"
b1010 F"
b0 X
b0 3"
b1011 0"
b110011 V
b110011 s
b1100 S
b1100 B"
b100 [
b100 r
b1010 N
b1010 @"
b1011 M
b1011 A"
b10110101010001100 ,"
b100 A
0-
b101101010100011000110011 g
17
b10 @
1(
#510000
0(
#515000
b0 A
1D"
07
10
b100 @
1(
#520000
0(
#525000
b11000000000011010010011 T
b11000000000011010010011 ="
b1100000 5"
b1100000 ;"
b1100000 6"
b1100000 :"
b11000000000011010010011 )
b11000000000011010010011 /
b11000000000011010010011 C
b11000000000011010010011 F
b11000000000011010010011 8"
1%
b111100 &
b111100 =
b1 A
0D"
b1000000 2
b1000000 H
b111100 <
b111100 G
00
b0 @
1(
#530000
0(
#535000
0%
b10 A
1-
b1 @
1(
#540000
0(
#545000
b1100000 6"
b1100000 :"
b1100000 5"
b1100000 ;"
b110 1
b110 U
b10 4"
b110 m
b0 :
b0 D
b0 L
b0 >"
b100000001100 1"
b110 /"
b110 '"
b110 a
b110 )"
b110 X
b110 3"
b110 I
b110 C"
b110 i
b110 ;
b110 B
b110 c
b110 q
b110 d
b110 k
b0 l
b0 e
b0 j
b0 Q
b0 9"
b0 E"
b1101 ."
1`
b0 Y
b0 #"
b0 -"
b0 P
b0 %"
b0 f
b0 n
b0 !"
0\
1O
b0 &"
b0 R
b0 *"
b0 F"
b110 0"
b10011 V
b10011 s
b1101 S
b1101 B"
b0 [
b0 r
b0 N
b0 @"
b110 M
b110 A"
b1100000000001101 ,"
b100 A
0-
b11000000000011010010011 g
17
b10 @
1(
#550000
0(
#555000
b0 A
1D"
07
10
b100 @
1(
#560000
0(
#565000
b110101100000010001100011 T
b110101100000010001100011 ="
b11010110 5"
b11010110 ;"
b11010110 6"
b11010110 :"
b110101100000010001100011 )
b110101100000010001100011 /
b110101100000010001100011 C
b110101100000010001100011 F
b110101100000010001100011 8"
1%
b1000000 &
b1000000 =
b1 A
0D"
b1000100 2
b1000100 H
b1000000 <
b1000000 G
00
b0 @
1(
#570000
0(
#575000
0%
b10 A
1-
b1 @
1(
#580000
0(
#585000
b10001100011 6"
b10001100011 :"
b1100011 5"
b1100011 ;"
13
1_
b1001000 1
b1001000 U
b0 4"
b110 :
b110 D
b110 L
b110 >"
b1000 m
b1000 1"
b1100000100000001100 /"
b1001000 ;
b1001000 B
b1001000 c
b1001000 q
b1000000 l
b1000000 e
b1000000 j
b110 Q
b110 9"
b110 E"
b110 '"
b110 a
b110 )"
b1000 d
b1000 k
b0 I
b0 C"
b0 i
b1000 ."
b0 b
b0 ""
b0 ("
0]
b101 P
b101 %"
b0 f
b0 n
b0 !"
0`
b10 Y
b10 #"
b10 -"
0O
b110 &"
b110 R
b110 *"
b110 F"
b1000 X
b1000 3"
b1101 0"
b1100011 V
b1100011 s
b1000 S
b1000 B"
b1100 N
b1100 @"
b1101 M
b1101 A"
b11010110000001000 ,"
b100 A
0-
b110101100000010001100011 g
17
b10 @
1(
#590000
0(
#595000
b0 A
07
10
b100 @
1(
#600000
0(
#605000
b1010000 1
b1010000 U
b111100000111000010011 T
b111100000111000010011 ="
b10011 5"
b10011 ;"
b111000010011 6"
b111000010011 :"
b1010000 ;
b1010000 B
b1010000 c
b1010000 q
b111100000111000010011 )
b111100000111000010011 /
b111100000111000010011 C
b111100000111000010011 F
b111100000111000010011 8"
b1001000 l
b1001000 e
b1001000 j
1%
b1001000 &
b1001000 =
b1 A
b1001100 2
b1001100 H
b1001000 <
b1001000 G
00
b0 @
1(
#610000
0(
#615000
0%
b10 A
1-
b1 @
1(
#620000
0(
#625000
b11110 6"
b11110 :"
b0 5"
b0 ;"
b1 m
b11 1
b11 U
b11 4"
b1 d
b1 k
b0 :
b0 D
b0 L
b0 >"
b11100 1"
b11100000100000000000 /"
b11 I
b11 C"
b11 i
b1 '"
b1 a
b1 )"
0_
b11 ;
b11 B
b11 c
b11 q
b10 l
b10 e
b10 j
b1 X
b1 3"
b10 &"
b10 R
b10 *"
b10 F"
b0 Q
b0 9"
b0 E"
b11100 ."
b0 P
b0 %"
1`
1O
b110 b
b110 ""
b110 ("
b0 f
b0 n
b0 !"
1]
b0 Y
b0 #"
b0 -"
03
b1 0"
b10011 V
b10011 s
b11100 S
b11100 B"
b11100 N
b11100 @"
b1 M
b1 A"
b11110000011100 ,"
b100 A
0-
b111100000111000010011 g
17
b10 @
1(
#630000
0(
#635000
b0 A
1D"
07
10
b100 @
1(
